Data analysis
…
  tibble(var = x_items, stem = stem) %>%
    group_by(stem) %>%
    summarize(vars = list(sort(var)), n = n(), .groups = "drop") %>%
    filter(n >= min_items) %>%
    arrange(desc(n))
}

scale_groups <- get_scale_groups(colnames(ds), min_items = 2, drop_en = TRUE)

# Inspect what was detected
scale_groups

# A tibble: 64 × 3
   stem  vars          n
   <chr> <list>    <int>
 1 A111  <chr [8]>     8
 2 A211  <chr [8]>     8
 3 A311  <chr [8]>     8
 4 A012  <chr [7]>     7
 5 A019  <chr [7]>     7
 6 A117  <chr [7]>     7
 7 A217  <chr [7]>     7
 8 A317  <chr [7]>     7
 9 D102  <chr [7]>     7
10 D108  <chr [7]>     7
# ℹ 54 more rows
…
